[
    {
       "processName":"Teeth Cutting",
       "inputFields":[
          "Number of Teeth",
          "Module",
          "Face Width",
          "Factor"
       ]
    },
    {
        "processName":"Teeth Grinding",
        "inputFields":[
           "Number of Teeth",
           "Module",
           "Face Width",
           "Factor"
        ]
     },
    {
       "processName":"Turning",
       "inputFields":[
          "M/C Hour Rate",
          "Process Time"
       ]
    },
    {
        "processName":"Milling",
        "inputFields":[
           "M/C Hour Rate",
           "Process Time"
        ]
     },
     {
        "processName":"Grinding",
        "inputFields":[
           "M/C Hour Rate",
           "Process Time"
        ]
     },
     {
        "processName":"Wire Cutting",
        "inputFields":[
           "M/C Hour Rate",
           "Process Time"
        ]
     },
     {
        "processName":"Chrome Plating",
        "inputFields":[
           "M/C Hour Rate",
           "Process Time"
        ]
     },
     {
        "processName":"CMM",
        "inputFields":[
           "M/C Hour Rate",
           "Process Time"
        ]
     },
     {
        "processName":"CNC Turning",
        "inputFields":[
           "M/C Hour Rate",
           "Process Time"
        ]
     },
     {
        "processName":"VMC Machining",
        "inputFields":[
           "M/C Hour Rate",
           "Process Time"
        ]
     },
    {
       "processName":"Raw Material",
       "inputFields":[
          "Process Rate",
          "Weigth"
       ]
    },
    {
        "processName":"Phosphating",
        "inputFields":[
           "Process Rate",
           "Weigth"
        ]
     },
     {
        "processName":"Blackodising",
        "inputFields":[
           "Process Rate",
           "Weigth"
        ]
     },
     {
        "processName":"Hardening",
        "inputFields":[
           "Process Rate",
           "Weigth"
        ]
     },
    {
       "processName":"Drilling",
       "inputFields":[
          "Rate Per Hole",
          "Number of Holes"
       ]
    },
    {
        "processName":"Tapping",
        "inputFields":[
           "Rate Per Tap",
           "Number of Taps"
        ]
     },
     {
        "processName":"Keyway",
        "inputFields":[
           "Rate Per Keyway",
           "Number of Keyways"
        ]
     }
 ]